^C:\USERS\MYBLI\SOURCE\REPOS\HEX\HEX\DEBUG\BF_READ.OBJ|C:\USERS\MYBLI\SOURCE\REPOS\HEX\HEX\DEBUG\BUTTON.OBJ|C:\USERS\MYBLI\SOURCE\REPOS\HEX\HEX\DEBUG\CHECKBOX.OBJ|C:\USERS\MYBLI\SOURCE\REPOS\HEX\HEX\DEBUG\COLORLIST.OBJ|C:\USERS\MYBLI\SOURCE\REPOS\HEX\HEX\DEBUG\COLORPICKER.OBJ|C:\USERS\MYBLI\SOURCE\REPOS\HEX\HEX\DEBUG\COMBOBOX.OBJ|C:\USERS\MYBLI\SOURCE\REPOS\HEX\HEX\DEBUG\CONTAINER.OBJ|C:\USERS\MYBLI\SOURCE\REPOS\HEX\HEX\DEBUG\CREATEMOVE.OBJ|C:\USERS\MYBLI\SOURCE\REPOS\HEX\HEX\DEBUG\C_BASECOMBATWEAPON.OBJ|C:\USERS\MYBLI\SOURCE\REPOS\HEX\HEX\DEBUG\C_BASEENTITY.OBJ|C:\USERS\MYBLI\SOURCE\REPOS\HEX\HEX\DEBUG\DISPATCHUSERMESSAGE.OBJ|C:\USERS\MYBLI\SOURCE\REPOS\HEX\HEX\DEBUG\DRAWING.OBJ|C:\USERS\MYBLI\SOURCE\REPOS\HEX\HEX\DEBUG\ELEMENT.OBJ|C:\USERS\MYBLI\SOURCE\REPOS\HEX\HEX\DEBUG\GLOBALS.OBJ|C:\USERS\MYBLI\SOURCE\REPOS\HEX\HEX\DEBUG\GLOBALVARS.OBJ|C:\USERS\MYBLI\SOURCE\REPOS\HEX\HEX\DEBUG\HACKS.OBJ|C:\USERS\MYBLI\SOURCE\REPOS\HEX\HEX\DEBUG\HANDLER.OBJ|C:\USERS\MYBLI\SOURCE\REPOS\HEX\HEX\DEBUG\HOOKS.OBJ|C:\USERS\MYBLI\SOURCE\REPOS\HEX\HEX\DEBUG\INTERFACES.OBJ|C:\USERS\MYBLI\SOURCE\REPOS\HEX\HEX\DEBUG\KEYBINDER.OBJ|C:\USERS\MYBLI\SOURCE\REPOS\HEX\HEX\DEBUG\LABEL.OBJ|C:\USERS\MYBLI\SOURCE\REPOS\HEX\HEX\DEBUG\LISTBOX.OBJ|C:\USERS\MYBLI\SOURCE\REPOS\HEX\HEX\DEBUG\LOG_INFO.OBJ|C:\USERS\MYBLI\SOURCE\REPOS\HEX\HEX\DEBUG\MAIN.OBJ|C:\USERS\MYBLI\SOURCE\REPOS\HEX\HEX\DEBUG\MATH.OBJ|C:\USERS\MYBLI\SOURCE\REPOS\HEX\HEX\DEBUG\MENU.OBJ|C:\USERS\MYBLI\SOURCE\REPOS\HEX\HEX\DEBUG\MENU_INPUT.OBJ|C:\USERS\MYBLI\SOURCE\REPOS\HEX\HEX\DEBUG\MULTIBOX.OBJ|C:\USERS\MYBLI\SOURCE\REPOS\HEX\HEX\DEBUG\NETVARS.OBJ|C:\USERS\MYBLI\SOURCE\REPOS\HEX\HEX\DEBUG\NOTIFICATIONS.OBJ|C:\USERS\MYBLI\SOURCE\REPOS\HEX\HEX\DEBUG\ONSCREENSIZECHANGED.OBJ|C:\USERS\MYBLI\SOURCE\REPOS\HEX\HEX\DEBUG\PAINT.OBJ|C:\USERS\MYBLI\SOURCE\REPOS\HEX\HEX\DEBUG\SCREEN_SIZE.OBJ|C:\USERS\MYBLI\SOURCE\REPOS\HEX\HEX\DEBUG\SLIDER.OBJ|C:\USERS\MYBLI\SOURCE\REPOS\HEX\HEX\DEBUG\SPINNER.OBJ|C:\USERS\MYBLI\SOURCE\REPOS\HEX\HEX\DEBUG\TABS.OBJ|C:\USERS\MYBLI\SOURCE\REPOS\HEX\HEX\DEBUG\TEXTBOX.OBJ|C:\USERS\MYBLI\SOURCE\REPOS\HEX\HEX\DEBUG\TRANSLATOR.OBJ
C:\USERS\MYBLI\SOURCE\REPOS\HEX\HEX\CURL\LIB\LIBCURL.LIB
C:\PROGRAM FILES (X86)\WINDOWS KITS\10\LIB\10.0.18362.0\UM\X86\WS2_32.LIB
C:\PROGRAM FILES (X86)\WINDOWS KITS\10\LIB\10.0.18362.0\UM\X86\WLDAP32.LIB
C:\PROGRAM FILES (X86)\WINDOWS KITS\10\LIB\10.0.18362.0\UM\X86\ADVAPI32.LIB
C:\PROGRAM FILES (X86)\WINDOWS KITS\10\LIB\10.0.18362.0\UM\X86\KERNEL32.LIB
C:\PROGRAM FILES (X86)\WINDOWS KITS\10\LIB\10.0.18362.0\UM\X86\COMDLG32.LIB
C:\PROGRAM FILES (X86)\WINDOWS KITS\10\LIB\10.0.18362.0\UM\X86\CRYPT32.LIB
C:\PROGRAM FILES (X86)\WINDOWS KITS\10\LIB\10.0.18362.0\UM\X86\NORMALIZ.LIB
C:\PROGRAM FILES (X86)\WINDOWS KITS\10\LIB\10.0.18362.0\UM\X86\USER32.LIB
C:\PROGRAM FILES (X86)\WINDOWS KITS\10\LIB\10.0.18362.0\UM\X86\GDI32.LIB
C:\PROGRAM FILES (X86)\WINDOWS KITS\10\LIB\10.0.18362.0\UM\X86\WINSPOOL.LIB
C:\PROGRAM FILES (X86)\WINDOWS KITS\10\LIB\10.0.18362.0\UM\X86\SHELL32.LIB
C:\PROGRAM FILES (X86)\WINDOWS KITS\10\LIB\10.0.18362.0\UM\X86\OLE32.LIB
C:\PROGRAM FILES (X86)\WINDOWS KITS\10\LIB\10.0.18362.0\UM\X86\OLEAUT32.LIB
C:\PROGRAM FILES (X86)\WINDOWS KITS\10\LIB\10.0.18362.0\UM\X86\UUID.LIB
C:\PROGRAM FILES (X86)\WINDOWS KITS\10\LIB\10.0.18362.0\UM\X86\ODBC32.LIB
C:\PROGRAM FILES (X86)\WINDOWS KITS\10\LIB\10.0.18362.0\UM\X86\ODBCCP32.LIB
C:\USERS\MYBLI\SOURCE\REPOS\HEX\HEX\DEBUG\BUTTON.OBJ
C:\USERS\MYBLI\SOURCE\REPOS\HEX\HEX\DEBUG\CHECKBOX.OBJ
C:\USERS\MYBLI\SOURCE\REPOS\HEX\HEX\DEBUG\COLORLIST.OBJ
C:\USERS\MYBLI\SOURCE\REPOS\HEX\HEX\DEBUG\COLORPICKER.OBJ
C:\USERS\MYBLI\SOURCE\REPOS\HEX\HEX\DEBUG\COMBOBOX.OBJ
C:\USERS\MYBLI\SOURCE\REPOS\HEX\HEX\DEBUG\CONTAINER.OBJ
C:\USERS\MYBLI\SOURCE\REPOS\HEX\HEX\DEBUG\ELEMENT.OBJ
C:\USERS\MYBLI\SOURCE\REPOS\HEX\HEX\DEBUG\KEYBINDER.OBJ
C:\USERS\MYBLI\SOURCE\REPOS\HEX\HEX\DEBUG\LABEL.OBJ
C:\USERS\MYBLI\SOURCE\REPOS\HEX\HEX\DEBUG\LISTBOX.OBJ
C:\USERS\MYBLI\SOURCE\REPOS\HEX\HEX\DEBUG\MULTIBOX.OBJ
C:\USERS\MYBLI\SOURCE\REPOS\HEX\HEX\DEBUG\SLIDER.OBJ
C:\USERS\MYBLI\SOURCE\REPOS\HEX\HEX\DEBUG\SPINNER.OBJ
C:\USERS\MYBLI\SOURCE\REPOS\HEX\HEX\DEBUG\TABS.OBJ
C:\USERS\MYBLI\SOURCE\REPOS\HEX\HEX\DEBUG\TEXTBOX.OBJ
C:\USERS\MYBLI\SOURCE\REPOS\HEX\HEX\DEBUG\HANDLER.OBJ
C:\USERS\MYBLI\SOURCE\REPOS\HEX\HEX\DEBUG\NOTIFICATIONS.OBJ
C:\USERS\MYBLI\SOURCE\REPOS\HEX\HEX\DEBUG\BF_READ.OBJ
C:\USERS\MYBLI\SOURCE\REPOS\HEX\HEX\DEBUG\CREATEMOVE.OBJ
C:\USERS\MYBLI\SOURCE\REPOS\HEX\HEX\DEBUG\C_BASECOMBATWEAPON.OBJ
C:\USERS\MYBLI\SOURCE\REPOS\HEX\HEX\DEBUG\C_BASEENTITY.OBJ
C:\USERS\MYBLI\SOURCE\REPOS\HEX\HEX\DEBUG\DISPATCHUSERMESSAGE.OBJ
C:\USERS\MYBLI\SOURCE\REPOS\HEX\HEX\DEBUG\DRAWING.OBJ
C:\USERS\MYBLI\SOURCE\REPOS\HEX\HEX\DEBUG\GLOBALS.OBJ
C:\USERS\MYBLI\SOURCE\REPOS\HEX\HEX\DEBUG\GLOBALVARS.OBJ
C:\USERS\MYBLI\SOURCE\REPOS\HEX\HEX\DEBUG\HACKS.OBJ
C:\USERS\MYBLI\SOURCE\REPOS\HEX\HEX\DEBUG\HOOKS.OBJ
C:\USERS\MYBLI\SOURCE\REPOS\HEX\HEX\DEBUG\INTERFACES.OBJ
C:\USERS\MYBLI\SOURCE\REPOS\HEX\HEX\DEBUG\LOG_INFO.OBJ
C:\USERS\MYBLI\SOURCE\REPOS\HEX\HEX\DEBUG\MAIN.OBJ
C:\USERS\MYBLI\SOURCE\REPOS\HEX\HEX\DEBUG\MATH.OBJ
C:\USERS\MYBLI\SOURCE\REPOS\HEX\HEX\DEBUG\MENU.OBJ
C:\USERS\MYBLI\SOURCE\REPOS\HEX\HEX\DEBUG\MENU_INPUT.OBJ
C:\USERS\MYBLI\SOURCE\REPOS\HEX\HEX\DEBUG\NETVARS.OBJ
C:\USERS\MYBLI\SOURCE\REPOS\HEX\HEX\DEBUG\ONSCREENSIZECHANGED.OBJ
C:\USERS\MYBLI\SOURCE\REPOS\HEX\HEX\DEBUG\PAINT.OBJ
C:\USERS\MYBLI\SOURCE\REPOS\HEX\HEX\DEBUG\SCREEN_SIZE.OBJ
C:\USERS\MYBLI\SOURCE\REPOS\HEX\HEX\DEBUG\TRANSLATOR.OBJ
C:\WINDOWS\SYSTEM32\TZRES.DLL
C:\WINDOWS\GLOBALIZATION\SORTING\SORTDEFAULT.NLS
D:\PROGRAM FILES (X86)\MICROSOFT VISUAL STUDIO\2019\COMMUNITY\VC\TOOLS\MSVC\14.24.28314\LIB\X86\MSVCPRTD.LIB
D:\PROGRAM FILES (X86)\MICROSOFT VISUAL STUDIO\2019\COMMUNITY\VC\TOOLS\MSVC\14.24.28314\LIB\X86\MSVCRTD.LIB
D:\PROGRAM FILES (X86)\MICROSOFT VISUAL STUDIO\2019\COMMUNITY\VC\TOOLS\MSVC\14.24.28314\LIB\X86\OLDNAMES.LIB
C:\PROGRAM FILES (X86)\WINDOWS KITS\10\LIB\10.0.18362.0\UM\X86\WININET.LIB
C:\USERS\MYBLI\SOURCE\REPOS\HEX\HEX\DETOURS\DETOURS.LIB
D:\PROGRAM FILES (X86)\MICROSOFT VISUAL STUDIO\2019\COMMUNITY\VC\TOOLS\MSVC\14.24.28314\LIB\X86\VCRUNTIMED.LIB
C:\PROGRAM FILES (X86)\WINDOWS KITS\10\LIB\10.0.18362.0\UCRT\X86\UCRTD.LIB
