#Command: "D:\Program Files (x86)\Microsoft Visual Studio\2019\Community\VC\Tools\MSVC\14.23.28105\bin\HostX86\x86\link.exe" /ERRORREPORT:PROMPT @C:\Users\mybli\AppData\Local\Temp\tmpda518b15e6b44b99a118b60197e95a81.rsp
^C:\USERS\MYBLI\SOURCE\REPOS\HEX\HEX\RELEASE\INTERFACES.OBJ|C:\USERS\MYBLI\SOURCE\REPOS\HEX\HEX\RELEASE\MAIN.OBJ
C:\USERS\MYBLI\SOURCE\REPOS\HEX\RELEASE\HEX.PDB
#Command: "D:\Program Files (x86)\Microsoft Visual Studio\2019\Community\VC\Tools\MSVC\14.23.28105\bin\HostX86\x86\link.exe" /ERRORREPORT:PROMPT @C:\Users\mybli\AppData\Local\Temp\tmp8ddbd2675fec41e3850f88a460fbf2e1.rsp
^C:\USERS\MYBLI\SOURCE\REPOS\HEX\HEX\RELEASE\INTERFACES.OBJ|C:\USERS\MYBLI\SOURCE\REPOS\HEX\HEX\RELEASE\MAIN.OBJ|C:\USERS\MYBLI\SOURCE\REPOS\HEX\HEX\RELEASE\SCREEN_SIZE.OBJ
C:\USERS\MYBLI\SOURCE\REPOS\HEX\RELEASE\HEX.PDB
#Command: "D:\Program Files (x86)\Microsoft Visual Studio\2019\Community\VC\Tools\MSVC\14.23.28105\bin\HostX86\x86\link.exe" /ERRORREPORT:PROMPT @C:\Users\mybli\AppData\Local\Temp\tmp3ad4d632213e44a38229f40e33cf417d.rsp
^C:\USERS\MYBLI\SOURCE\REPOS\HEX\HEX\RELEASE\CREATEMOVE.OBJ|C:\USERS\MYBLI\SOURCE\REPOS\HEX\HEX\RELEASE\C_BASEENTITY.OBJ|C:\USERS\MYBLI\SOURCE\REPOS\HEX\HEX\RELEASE\DRAWING.OBJ|C:\USERS\MYBLI\SOURCE\REPOS\HEX\HEX\RELEASE\GLOBALS.OBJ|C:\USERS\MYBLI\SOURCE\REPOS\HEX\HEX\RELEASE\GLOBALVARS.OBJ|C:\USERS\MYBLI\SOURCE\REPOS\HEX\HEX\RELEASE\HOOKS.OBJ|C:\USERS\MYBLI\SOURCE\REPOS\HEX\HEX\RELEASE\INTERFACES.OBJ|C:\USERS\MYBLI\SOURCE\REPOS\HEX\HEX\RELEASE\LOG_INFO.OBJ|C:\USERS\MYBLI\SOURCE\REPOS\HEX\HEX\RELEASE\MAIN.OBJ|C:\USERS\MYBLI\SOURCE\REPOS\HEX\HEX\RELEASE\NETVARS.OBJ|C:\USERS\MYBLI\SOURCE\REPOS\HEX\HEX\RELEASE\PAINT.OBJ|C:\USERS\MYBLI\SOURCE\REPOS\HEX\HEX\RELEASE\SCREEN_SIZE.OBJ
C:\USERS\MYBLI\SOURCE\REPOS\HEX\RELEASE\HEX.PDB
#Command: "D:\Program Files (x86)\Microsoft Visual Studio\2019\Community\VC\Tools\MSVC\14.23.28105\bin\HostX86\x86\link.exe" /ERRORREPORT:PROMPT @C:\Users\mybli\AppData\Local\Temp\tmp7aa76fdb2c294748ac774b2fe0b4265c.rsp
^C:\USERS\MYBLI\SOURCE\REPOS\HEX\HEX\RELEASE\CREATEMOVE.OBJ|C:\USERS\MYBLI\SOURCE\REPOS\HEX\HEX\RELEASE\C_BASEENTITY.OBJ|C:\USERS\MYBLI\SOURCE\REPOS\HEX\HEX\RELEASE\DRAWING.OBJ|C:\USERS\MYBLI\SOURCE\REPOS\HEX\HEX\RELEASE\GLOBALS.OBJ|C:\USERS\MYBLI\SOURCE\REPOS\HEX\HEX\RELEASE\GLOBALVARS.OBJ|C:\USERS\MYBLI\SOURCE\REPOS\HEX\HEX\RELEASE\HOOKS.OBJ|C:\USERS\MYBLI\SOURCE\REPOS\HEX\HEX\RELEASE\INTERFACES.OBJ|C:\USERS\MYBLI\SOURCE\REPOS\HEX\HEX\RELEASE\LOG_INFO.OBJ|C:\USERS\MYBLI\SOURCE\REPOS\HEX\HEX\RELEASE\MAIN.OBJ|C:\USERS\MYBLI\SOURCE\REPOS\HEX\HEX\RELEASE\NETVARS.OBJ|C:\USERS\MYBLI\SOURCE\REPOS\HEX\HEX\RELEASE\PAINT.OBJ|C:\USERS\MYBLI\SOURCE\REPOS\HEX\HEX\RELEASE\SCREEN_SIZE.OBJ
C:\USERS\MYBLI\SOURCE\REPOS\HEX\RELEASE\HEX.PDB
#Command: "D:\Program Files (x86)\Microsoft Visual Studio\2019\Community\VC\Tools\MSVC\14.23.28105\bin\HostX86\x86\link.exe" /ERRORREPORT:PROMPT @C:\Users\mybli\AppData\Local\Temp\tmp44f79ba75d1942918df7eb75373deb31.rsp
^C:\USERS\MYBLI\SOURCE\REPOS\HEX\HEX\RELEASE\CREATEMOVE.OBJ|C:\USERS\MYBLI\SOURCE\REPOS\HEX\HEX\RELEASE\C_BASEENTITY.OBJ|C:\USERS\MYBLI\SOURCE\REPOS\HEX\HEX\RELEASE\DRAWING.OBJ|C:\USERS\MYBLI\SOURCE\REPOS\HEX\HEX\RELEASE\GLOBALS.OBJ|C:\USERS\MYBLI\SOURCE\REPOS\HEX\HEX\RELEASE\GLOBALVARS.OBJ|C:\USERS\MYBLI\SOURCE\REPOS\HEX\HEX\RELEASE\HOOKS.OBJ|C:\USERS\MYBLI\SOURCE\REPOS\HEX\HEX\RELEASE\INTERFACES.OBJ|C:\USERS\MYBLI\SOURCE\REPOS\HEX\HEX\RELEASE\LOG_INFO.OBJ|C:\USERS\MYBLI\SOURCE\REPOS\HEX\HEX\RELEASE\MAIN.OBJ|C:\USERS\MYBLI\SOURCE\REPOS\HEX\HEX\RELEASE\MATRIX.OBJ|C:\USERS\MYBLI\SOURCE\REPOS\HEX\HEX\RELEASE\NETVARS.OBJ|C:\USERS\MYBLI\SOURCE\REPOS\HEX\HEX\RELEASE\PAINT.OBJ|C:\USERS\MYBLI\SOURCE\REPOS\HEX\HEX\RELEASE\SCREEN_SIZE.OBJ
C:\USERS\MYBLI\SOURCE\REPOS\HEX\RELEASE\HEX.PDB
#Command: "D:\Program Files (x86)\Microsoft Visual Studio\2019\Community\VC\Tools\MSVC\14.23.28105\bin\HostX86\x86\link.exe" /ERRORREPORT:PROMPT @C:\Users\mybli\AppData\Local\Temp\tmp65e113f29d6643fe9b0facb6621ed119.rsp
^C:\USERS\MYBLI\SOURCE\REPOS\HEX\HEX\RELEASE\CREATEMOVE.OBJ|C:\USERS\MYBLI\SOURCE\REPOS\HEX\HEX\RELEASE\C_BASEENTITY.OBJ|C:\USERS\MYBLI\SOURCE\REPOS\HEX\HEX\RELEASE\DRAWING.OBJ|C:\USERS\MYBLI\SOURCE\REPOS\HEX\HEX\RELEASE\GLOBALS.OBJ|C:\USERS\MYBLI\SOURCE\REPOS\HEX\HEX\RELEASE\GLOBALVARS.OBJ|C:\USERS\MYBLI\SOURCE\REPOS\HEX\HEX\RELEASE\HACKS.OBJ|C:\USERS\MYBLI\SOURCE\REPOS\HEX\HEX\RELEASE\HOOKS.OBJ|C:\USERS\MYBLI\SOURCE\REPOS\HEX\HEX\RELEASE\INTERFACES.OBJ|C:\USERS\MYBLI\SOURCE\REPOS\HEX\HEX\RELEASE\LOG_INFO.OBJ|C:\USERS\MYBLI\SOURCE\REPOS\HEX\HEX\RELEASE\MAIN.OBJ|C:\USERS\MYBLI\SOURCE\REPOS\HEX\HEX\RELEASE\MATRIX.OBJ|C:\USERS\MYBLI\SOURCE\REPOS\HEX\HEX\RELEASE\NETVARS.OBJ|C:\USERS\MYBLI\SOURCE\REPOS\HEX\HEX\RELEASE\PAINT.OBJ|C:\USERS\MYBLI\SOURCE\REPOS\HEX\HEX\RELEASE\SCREEN_SIZE.OBJ
C:\USERS\MYBLI\SOURCE\REPOS\HEX\RELEASE\HEX.PDB
#Command: "D:\Program Files (x86)\Microsoft Visual Studio\2019\Community\VC\Tools\MSVC\14.23.28105\bin\HostX86\x86\link.exe" /ERRORREPORT:PROMPT @C:\Users\mybli\AppData\Local\Temp\tmp68598cf833f342d79013564da4f49996.rsp
^C:\USERS\MYBLI\SOURCE\REPOS\HEX\HEX\RELEASE\CREATEMOVE.OBJ|C:\USERS\MYBLI\SOURCE\REPOS\HEX\HEX\RELEASE\C_BASECOMBATWEAPON.OBJ|C:\USERS\MYBLI\SOURCE\REPOS\HEX\HEX\RELEASE\C_BASEENTITY.OBJ|C:\USERS\MYBLI\SOURCE\REPOS\HEX\HEX\RELEASE\DRAWING.OBJ|C:\USERS\MYBLI\SOURCE\REPOS\HEX\HEX\RELEASE\GLOBALS.OBJ|C:\USERS\MYBLI\SOURCE\REPOS\HEX\HEX\RELEASE\GLOBALVARS.OBJ|C:\USERS\MYBLI\SOURCE\REPOS\HEX\HEX\RELEASE\HACKS.OBJ|C:\USERS\MYBLI\SOURCE\REPOS\HEX\HEX\RELEASE\HOOKS.OBJ|C:\USERS\MYBLI\SOURCE\REPOS\HEX\HEX\RELEASE\INTERFACES.OBJ|C:\USERS\MYBLI\SOURCE\REPOS\HEX\HEX\RELEASE\LOG_INFO.OBJ|C:\USERS\MYBLI\SOURCE\REPOS\HEX\HEX\RELEASE\MAIN.OBJ|C:\USERS\MYBLI\SOURCE\REPOS\HEX\HEX\RELEASE\MATH.OBJ|C:\USERS\MYBLI\SOURCE\REPOS\HEX\HEX\RELEASE\NETVARS.OBJ|C:\USERS\MYBLI\SOURCE\REPOS\HEX\HEX\RELEASE\ONSCREENSIZECHANGED.OBJ|C:\USERS\MYBLI\SOURCE\REPOS\HEX\HEX\RELEASE\PAINT.OBJ|C:\USERS\MYBLI\SOURCE\REPOS\HEX\HEX\RELEASE\SCREEN_SIZE.OBJ
C:\USERS\MYBLI\SOURCE\REPOS\HEX\RELEASE\HEX.PDB
#Command: "D:\Program Files (x86)\Microsoft Visual Studio\2019\Community\VC\Tools\MSVC\14.23.28105\bin\HostX86\x86\link.exe" /ERRORREPORT:PROMPT @C:\Users\mybli\AppData\Local\Temp\tmp5eed7304551546f18acb2e8e2c0be672.rsp
^C:\USERS\MYBLI\SOURCE\REPOS\HEX\HEX\RELEASE\CREATEMOVE.OBJ|C:\USERS\MYBLI\SOURCE\REPOS\HEX\HEX\RELEASE\C_BASECOMBATWEAPON.OBJ|C:\USERS\MYBLI\SOURCE\REPOS\HEX\HEX\RELEASE\C_BASEENTITY.OBJ|C:\USERS\MYBLI\SOURCE\REPOS\HEX\HEX\RELEASE\DISPATCHUSERMESSAGE.OBJ|C:\USERS\MYBLI\SOURCE\REPOS\HEX\HEX\RELEASE\DRAWING.OBJ|C:\USERS\MYBLI\SOURCE\REPOS\HEX\HEX\RELEASE\GLOBALS.OBJ|C:\USERS\MYBLI\SOURCE\REPOS\HEX\HEX\RELEASE\GLOBALVARS.OBJ|C:\USERS\MYBLI\SOURCE\REPOS\HEX\HEX\RELEASE\HACKS.OBJ|C:\USERS\MYBLI\SOURCE\REPOS\HEX\HEX\RELEASE\HOOKS.OBJ|C:\USERS\MYBLI\SOURCE\REPOS\HEX\HEX\RELEASE\INTERFACES.OBJ|C:\USERS\MYBLI\SOURCE\REPOS\HEX\HEX\RELEASE\LOG_INFO.OBJ|C:\USERS\MYBLI\SOURCE\REPOS\HEX\HEX\RELEASE\MAIN.OBJ|C:\USERS\MYBLI\SOURCE\REPOS\HEX\HEX\RELEASE\MATH.OBJ|C:\USERS\MYBLI\SOURCE\REPOS\HEX\HEX\RELEASE\NETVARS.OBJ|C:\USERS\MYBLI\SOURCE\REPOS\HEX\HEX\RELEASE\ONSCREENSIZECHANGED.OBJ|C:\USERS\MYBLI\SOURCE\REPOS\HEX\HEX\RELEASE\PAINT.OBJ|C:\USERS\MYBLI\SOURCE\REPOS\HEX\HEX\RELEASE\SCREEN_SIZE.OBJ|C:\USERS\MYBLI\SOURCE\REPOS\HEX\HEX\RELEASE\UTIL_SAYTEXT2FILTER.OBJ
C:\USERS\MYBLI\SOURCE\REPOS\HEX\RELEASE\HEX.PDB
#Command: "D:\Program Files (x86)\Microsoft Visual Studio\2019\Community\VC\Tools\MSVC\14.23.28105\bin\HostX86\x86\link.exe" /ERRORREPORT:PROMPT @C:\Users\mybli\AppData\Local\Temp\tmpc2bfe198581d401ea9ac0e1afe20d890.rsp
^C:\USERS\MYBLI\SOURCE\REPOS\HEX\HEX\RELEASE\CREATEMOVE.OBJ|C:\USERS\MYBLI\SOURCE\REPOS\HEX\HEX\RELEASE\C_BASECOMBATWEAPON.OBJ|C:\USERS\MYBLI\SOURCE\REPOS\HEX\HEX\RELEASE\C_BASEENTITY.OBJ|C:\USERS\MYBLI\SOURCE\REPOS\HEX\HEX\RELEASE\DISPATCHUSERMESSAGE.OBJ|C:\USERS\MYBLI\SOURCE\REPOS\HEX\HEX\RELEASE\DRAWING.OBJ|C:\USERS\MYBLI\SOURCE\REPOS\HEX\HEX\RELEASE\GLOBALS.OBJ|C:\USERS\MYBLI\SOURCE\REPOS\HEX\HEX\RELEASE\GLOBALVARS.OBJ|C:\USERS\MYBLI\SOURCE\REPOS\HEX\HEX\RELEASE\HACKS.OBJ|C:\USERS\MYBLI\SOURCE\REPOS\HEX\HEX\RELEASE\HOOKS.OBJ|C:\USERS\MYBLI\SOURCE\REPOS\HEX\HEX\RELEASE\INTERFACES.OBJ|C:\USERS\MYBLI\SOURCE\REPOS\HEX\HEX\RELEASE\LOG_INFO.OBJ|C:\USERS\MYBLI\SOURCE\REPOS\HEX\HEX\RELEASE\MAIN.OBJ|C:\USERS\MYBLI\SOURCE\REPOS\HEX\HEX\RELEASE\MATH.OBJ|C:\USERS\MYBLI\SOURCE\REPOS\HEX\HEX\RELEASE\NETVARS.OBJ|C:\USERS\MYBLI\SOURCE\REPOS\HEX\HEX\RELEASE\ONSCREENSIZECHANGED.OBJ|C:\USERS\MYBLI\SOURCE\REPOS\HEX\HEX\RELEASE\PAINT.OBJ|C:\USERS\MYBLI\SOURCE\REPOS\HEX\HEX\RELEASE\SCREEN_SIZE.OBJ|C:\USERS\MYBLI\SOURCE\REPOS\HEX\HEX\RELEASE\UTIL_SAYTEXT2FILTER.OBJ
C:\USERS\MYBLI\SOURCE\REPOS\HEX\RELEASE\HEX.PDB
#Command: "D:\Program Files (x86)\Microsoft Visual Studio\2019\Community\VC\Tools\MSVC\14.23.28105\bin\HostX86\x86\link.exe" /ERRORREPORT:PROMPT @C:\Users\mybli\AppData\Local\Temp\tmp06edb339be1441a49a0eaf14b7c691b0.rsp
^C:\USERS\MYBLI\SOURCE\REPOS\HEX\HEX\RELEASE\BF_READ.OBJ|C:\USERS\MYBLI\SOURCE\REPOS\HEX\HEX\RELEASE\CREATEMOVE.OBJ|C:\USERS\MYBLI\SOURCE\REPOS\HEX\HEX\RELEASE\C_BASECOMBATWEAPON.OBJ|C:\USERS\MYBLI\SOURCE\REPOS\HEX\HEX\RELEASE\C_BASEENTITY.OBJ|C:\USERS\MYBLI\SOURCE\REPOS\HEX\HEX\RELEASE\DISPATCHUSERMESSAGE.OBJ|C:\USERS\MYBLI\SOURCE\REPOS\HEX\HEX\RELEASE\DRAWING.OBJ|C:\USERS\MYBLI\SOURCE\REPOS\HEX\HEX\RELEASE\GLOBALS.OBJ|C:\USERS\MYBLI\SOURCE\REPOS\HEX\HEX\RELEASE\GLOBALVARS.OBJ|C:\USERS\MYBLI\SOURCE\REPOS\HEX\HEX\RELEASE\HACKS.OBJ|C:\USERS\MYBLI\SOURCE\REPOS\HEX\HEX\RELEASE\HOOKS.OBJ|C:\USERS\MYBLI\SOURCE\REPOS\HEX\HEX\RELEASE\INTERFACES.OBJ|C:\USERS\MYBLI\SOURCE\REPOS\HEX\HEX\RELEASE\LOG_INFO.OBJ|C:\USERS\MYBLI\SOURCE\REPOS\HEX\HEX\RELEASE\MAIN.OBJ|C:\USERS\MYBLI\SOURCE\REPOS\HEX\HEX\RELEASE\MATH.OBJ|C:\USERS\MYBLI\SOURCE\REPOS\HEX\HEX\RELEASE\NETVARS.OBJ|C:\USERS\MYBLI\SOURCE\REPOS\HEX\HEX\RELEASE\ONSCREENSIZECHANGED.OBJ|C:\USERS\MYBLI\SOURCE\REPOS\HEX\HEX\RELEASE\PAINT.OBJ|C:\USERS\MYBLI\SOURCE\REPOS\HEX\HEX\RELEASE\SCREEN_SIZE.OBJ|C:\USERS\MYBLI\SOURCE\REPOS\HEX\HEX\RELEASE\TRANSLATOR.OBJ
C:\USERS\MYBLI\SOURCE\REPOS\HEX\RELEASE\HEX.PDB
#Command: "D:\Program Files (x86)\Microsoft Visual Studio\2019\Community\VC\Tools\MSVC\14.23.28105\bin\HostX86\x86\link.exe" /ERRORREPORT:PROMPT @C:\Users\mybli\AppData\Local\Temp\tmpf7d82c86f084423a95041a0f48fa4819.rsp
^C:\USERS\MYBLI\SOURCE\REPOS\HEX\HEX\RELEASE\BF_READ.OBJ|C:\USERS\MYBLI\SOURCE\REPOS\HEX\HEX\RELEASE\CREATEMOVE.OBJ|C:\USERS\MYBLI\SOURCE\REPOS\HEX\HEX\RELEASE\C_BASECOMBATWEAPON.OBJ|C:\USERS\MYBLI\SOURCE\REPOS\HEX\HEX\RELEASE\C_BASEENTITY.OBJ|C:\USERS\MYBLI\SOURCE\REPOS\HEX\HEX\RELEASE\DISPATCHUSERMESSAGE.OBJ|C:\USERS\MYBLI\SOURCE\REPOS\HEX\HEX\RELEASE\DRAWING.OBJ|C:\USERS\MYBLI\SOURCE\REPOS\HEX\HEX\RELEASE\GLOBALS.OBJ|C:\USERS\MYBLI\SOURCE\REPOS\HEX\HEX\RELEASE\GLOBALVARS.OBJ|C:\USERS\MYBLI\SOURCE\REPOS\HEX\HEX\RELEASE\HACKS.OBJ|C:\USERS\MYBLI\SOURCE\REPOS\HEX\HEX\RELEASE\HOOKS.OBJ|C:\USERS\MYBLI\SOURCE\REPOS\HEX\HEX\RELEASE\INTERFACES.OBJ|C:\USERS\MYBLI\SOURCE\REPOS\HEX\HEX\RELEASE\LOG_INFO.OBJ|C:\USERS\MYBLI\SOURCE\REPOS\HEX\HEX\RELEASE\MAIN.OBJ|C:\USERS\MYBLI\SOURCE\REPOS\HEX\HEX\RELEASE\MATH.OBJ|C:\USERS\MYBLI\SOURCE\REPOS\HEX\HEX\RELEASE\NETVARS.OBJ|C:\USERS\MYBLI\SOURCE\REPOS\HEX\HEX\RELEASE\ONSCREENSIZECHANGED.OBJ|C:\USERS\MYBLI\SOURCE\REPOS\HEX\HEX\RELEASE\PAINT.OBJ|C:\USERS\MYBLI\SOURCE\REPOS\HEX\HEX\RELEASE\SCREEN_SIZE.OBJ|C:\USERS\MYBLI\SOURCE\REPOS\HEX\HEX\RELEASE\TRANSLATOR.OBJ
C:\USERS\MYBLI\SOURCE\REPOS\HEX\RELEASE\HEX.PDB
#Command: "D:\Program Files (x86)\Microsoft Visual Studio\2019\Community\VC\Tools\MSVC\14.24.28314\bin\HostX86\x86\link.exe" /ERRORREPORT:PROMPT @C:\Users\mybli\AppData\Local\Temp\tmp5fea99b0a1194c699818a85443a51aa1.rsp
^C:\USERS\MYBLI\SOURCE\REPOS\HEX\HEX\RELEASE\BF_READ.OBJ|C:\USERS\MYBLI\SOURCE\REPOS\HEX\HEX\RELEASE\CREATEMOVE.OBJ|C:\USERS\MYBLI\SOURCE\REPOS\HEX\HEX\RELEASE\C_BASECOMBATWEAPON.OBJ|C:\USERS\MYBLI\SOURCE\REPOS\HEX\HEX\RELEASE\C_BASEENTITY.OBJ|C:\USERS\MYBLI\SOURCE\REPOS\HEX\HEX\RELEASE\DISPATCHUSERMESSAGE.OBJ|C:\USERS\MYBLI\SOURCE\REPOS\HEX\HEX\RELEASE\DRAWING.OBJ|C:\USERS\MYBLI\SOURCE\REPOS\HEX\HEX\RELEASE\GLOBALS.OBJ|C:\USERS\MYBLI\SOURCE\REPOS\HEX\HEX\RELEASE\GLOBALVARS.OBJ|C:\USERS\MYBLI\SOURCE\REPOS\HEX\HEX\RELEASE\HACKS.OBJ|C:\USERS\MYBLI\SOURCE\REPOS\HEX\HEX\RELEASE\HOOKS.OBJ|C:\USERS\MYBLI\SOURCE\REPOS\HEX\HEX\RELEASE\INTERFACES.OBJ|C:\USERS\MYBLI\SOURCE\REPOS\HEX\HEX\RELEASE\LOG_INFO.OBJ|C:\USERS\MYBLI\SOURCE\REPOS\HEX\HEX\RELEASE\MAIN.OBJ|C:\USERS\MYBLI\SOURCE\REPOS\HEX\HEX\RELEASE\MATH.OBJ|C:\USERS\MYBLI\SOURCE\REPOS\HEX\HEX\RELEASE\MENU.OBJ|C:\USERS\MYBLI\SOURCE\REPOS\HEX\HEX\RELEASE\NETVARS.OBJ|C:\USERS\MYBLI\SOURCE\REPOS\HEX\HEX\RELEASE\ONSCREENSIZECHANGED.OBJ|C:\USERS\MYBLI\SOURCE\REPOS\HEX\HEX\RELEASE\PAINT.OBJ|C:\USERS\MYBLI\SOURCE\REPOS\HEX\HEX\RELEASE\SCREEN_SIZE.OBJ|C:\USERS\MYBLI\SOURCE\REPOS\HEX\HEX\RELEASE\TRANSLATOR.OBJ|C:\USERS\MYBLI\SOURCE\REPOS\HEX\HEX\RELEASE\ZGUI.OBJ
C:\USERS\MYBLI\SOURCE\REPOS\HEX\RELEASE\HEX.PDB
